{
  "url": "https://gitlab.com/tezos/tezos",
  "rev": "b8731913f21091e14dea9c2b6657e768c1342650",
  "sha256": "1pakf1s6bg76fq42mb8fj1immz9g9wwimd522cpx8k28zf0hkl5i",
  "fetchSubmodules": false,
  "branch": "babylonnet"
}
